[gd_scene load_steps=3 format=2]

[ext_resource path="res://Assets/snow.png" type="Texture" id=1]

[sub_resource type="RectangleShape2D" id=1]
extents = Vector2( 35.4208, 35.2949 )

[node name="SnowPlatform" type="StaticBody2D"]

[node name="snow" type="Sprite" parent="."]
texture = ExtResource( 1 )

[node name="CollisionShape2D" type="CollisionShape2D" parent="."]
shape = SubResource( 1 )
